Handling missing values with R
…
miss_case_summary(don)

## # A tibble: 112 x 4
##     case n_miss pct_miss n_miss_cumsum
##    <int>  <int>    <dbl>         <int>
##  1    18      8     72.7            44
##  2    56      8     72.7           167
##  3    25      7     63.6            69
##  4    47      7     63.6           138
##  5   110      7     63.6           286
##  6    24      6     54.5            62
##  7    31      6     54.5            91
##  8    45      6     54.5           131
##  9    22      5     45.5            55
## 10    33      5     45.5            97
## # ... with 102 more rows
…
